143
425
585
30
217
616
447
973
210
639
541
830
912
743
828
671
760
737
949
568
87
535
794
616
373
999
853
666
365
807
680
800
684
960
186
725
631
700
818
402
956
237
490
998
624
600
283
906
301
495
917
165
193
977
610
489
795
545
915
641
123
113
643
117
483
961
984
878
277
80
802
591
228
848
810
740
902
201
993
268
429
582
538
789
941
136
334
508
250
745
77
653
491
192
978
26
957
400
834
85
429
291
690
69
814
276
571
65
765
179
460
577
50
758
52
821
676
227
273
789
288
226
592
943
378
876
497
575
524
353
664
781
108
124
407
272
43
421
708
405
769
432
57
887
637
96
700
573
644
802
798
897
456
130
182
420
369
121
916
637
816
911
97
990
557
355
578
764
872
80
792
517
609
675
657
728
446
963
201
232
576
116
630
801
352
422
538
435
730
952
283
931
95
617
215
174
139
375
755
426
972
82
854
208
853
941
975
58
836
899
682
952
193
13
757
453
603
735
155
402
954
530
285
596
681
162
517
589
451
268
764
476
206
860
123
812
97
319
139
981
288
917
666
532
330
764
952
498
473
98
885
788
508
439
956
799
122
786
214
63
346
507
252
780
446
900
540
169
328
506
573
367
646
896
815
691
141
195
606
908
67
49
707
607
902
742
706
355
953
811
125
241
468
512
463
802
260
711
360
113
861
999
458
334
924
425
184
712
176
166
689
124
550
840
742
26
546
665
159
879
48
987
751
319
113
163
453
524
936
119
756
326
777
241
974
258
559
921
382
147
131
156
477
47
875
730
499
682
545
856
165
740
831
368
851
926
223
447
418
838
325
722
71
747
690
275
16
123
129
837
359
68
426
791
358
378
570
620
399
666
702
32
896
325
377
286
833
12
247
510
369
813
655
380
778
98
910
752
643
783
621
523
384
693
336
261
31
549
102
467
219
286
118
837
904
636
298
204
368
47
246
526
201
243
774
488
641
140
296
765
489
796
200
996
364
540
93
600
47
256
823
14
65
328
407
54
464
990
305
129
679
141
487
831
407
776
409
75
426
782
347
864
995
117
531
973
614
194
930
386
799
415
370
289
988
835
316
47
226
904
789
32
616
243
26
479
292
389
546
199
25
345
36
626
632
108
69
362
561
517
136
291
858
815
974
913
786
908
805
122
948
103
363
438
401
90
403
313
618
521
332
768
428
50
445
338
115
583
11
171
280
140
750
798
286
604
266
566
398
238
545
739
68
337
296
694
100
233
320
468
997
796
48
219
8
356
205
645
600
709
681
870
907
142
173
859
802
741
289
74
244
908
501
92
576
384
111
127
720
898
534
347
487
610
922
381
36
665
843
754
470
690
135
142
242
775
67
576
249
735
402
903
667
419
526
294
361
418
659
575
910
367
950
308
690
797
160
61
141
402
599
505
288
525
355
324
876
538
39
482
696
401
884
86
484
38
370
328
553
845
662
46
407
310
672
832
657
555
107
789
200
898
545
742
422
622
292
243
651
178
665
92
814
220
906
879
995
185
18
198
791
808
984
985
871
678
340
973
253
92
411
835
279
926
292
839
333
115
336
350
966
999
908
497
994
447
131
394
417
719
992
960
698
610
986
776
516
34
75
751
651
300
364
905
317
783
655
310
339
256
107
276
136
905
548
334
471
279
696
733
515
357
301
348
118
439
922
754
646
929
475
785
684
463
59
609
168
863
801
211
382
347
28
473
725
79
978
199
579
157
662
958
546
181
416
258
421
859
777
217
817
597
655
76
443
170
217
253
438
971
876
205
394
502
40
894
718
544
102
951
615
865
298
721
165
741
794
878
947
314
999
493
996
330
705
79
994
645
203
258
706
227
590
822
468
311
23
588
317
113
857
19
260
251
772
11
175
259
509
443
487
73
161
832
611
609
742
938
909
66
232
630
477
601
201
864
198
418
60
904
663
250
281
905
187
852
517
865
826
679
160
576
462
717
389
783
988
79
441
474
298
511
445
463
91
807
173
27
937
353
85
510
109
70
955
75
32
221
234
481
841
593
864
932
960
160
953
385
702
596
952
20
257
839
618
693
333
87
268
775
699
710
586
818
723
437
148
333
821
651
982
360
757
706
245
571
544
657
112
388
556
428
398
688
900
674
284
860
588
47
280
86
526
154
267
960
563
29
398
309
849
240
685
692
420
978
261
492
957
979
254
691
978
131
980
925
519
368
324
52
400
745
838
118
815
679
796
75
290
195
307
340
403
165
26
711
100
440
206
254
990
380
535
988
399
723
49
422
800
183
117
375
807
691
981
890
622
97
413
129
729
137
956
334
313
794
807
698
874
655
193
547
459
338
489
483
115
125
220
907
361
243
834
987
149
509
142
750
611
21
578
717
47
610
892
299
729
